#FIG 3.2  Produced by xfig version 3.2.5c
Landscape
Center
Metric
A4      
100.00
Single
-2
1200 2
2 2 0 1 0 7 51 -1 18 4.000 0 0 7 0 0 5
	 2250 450 3150 450 3150 630 2250 630 2250 450
2 2 0 1 0 7 51 -1 18 4.000 0 0 7 0 0 5
	 2250 810 3150 810 3150 990 2250 990 2250 810
2 2 0 1 0 7 51 -1 18 4.000 0 0 7 0 0 5
	 2250 990 3150 990 3150 1170 2250 1170 2250 990
2 2 0 1 0 7 51 -1 18 4.000 0 0 7 0 0 5
	 2250 1350 3150 1350 3150 1530 2250 1530 2250 1350
2 2 0 1 0 7 51 -1 18 4.000 0 0 7 0 0 5
	 2250 1530 3150 1530 3150 1710 2250 1710 2250 1530
2 2 0 1 0 7 51 -1 18 4.000 0 0 7 0 0 5
	 2250 1710 3150 1710 3150 1890 2250 1890 2250 1710
2 2 0 1 0 7 51 -1 18 4.000 0 0 7 0 0 5
	 2250 2070 3150 2070 3150 2250 2250 2250 2250 2070
2 2 0 1 0 7 51 -1 18 4.000 0 0 7 0 0 5
	 2250 2250 3150 2250 3150 2430 2250 2430 2250 2250
2 2 0 1 0 7 51 -1 18 4.000 0 0 7 0 0 5
	 2250 2430 3150 2430 3150 2610 2250 2610 2250 2430
2 2 0 1 0 7 51 -1 18 4.000 0 0 7 0 0 5
	 2250 2790 3150 2790 3150 2970 2250 2970 2250 2790
2 2 0 1 0 7 51 -1 18 4.000 0 0 7 0 0 5
	 2250 2970 3150 2970 3150 3150 2250 3150 2250 2970
2 2 0 1 0 7 51 -1 18 4.000 0 0 7 0 0 5
	 1620 1170 1800 1170 1800 1350 1620 1350 1620 1170
2 2 0 1 0 7 51 -1 18 4.000 0 0 7 0 0 5
	 1620 810 1800 810 1800 990 1620 990 1620 810
2 1 1 1 0 7 50 -1 18 4.000 0 0 -1 0 0 2
	 1350 630 1620 630
2 1 1 1 0 7 50 -1 18 4.000 0 0 -1 0 0 2
	 1350 810 1620 810
2 1 1 1 0 7 50 -1 18 4.000 0 0 -1 0 0 2
	 1350 990 1620 990
2 1 1 1 0 7 50 -1 18 4.000 0 0 -1 0 0 2
	 1350 1170 1620 1170
2 1 1 1 0 7 50 -1 18 4.000 0 0 -1 0 0 2
	 1350 1350 1620 1350
2 1 1 1 0 7 50 -1 18 4.000 0 0 -1 0 0 2
	 1350 1530 1620 1530
2 2 0 1 0 18 51 -1 36 0.000 0 0 7 0 0 5
	 450 630 1350 630 1350 810 450 810 450 630
2 2 0 1 0 18 51 -1 36 0.000 0 0 7 0 0 5
	 450 810 1350 810 1350 990 450 990 450 810
2 2 0 1 0 18 51 -1 36 0.000 0 0 7 0 0 5
	 450 990 1350 990 1350 1170 450 1170 450 990
2 2 0 1 0 18 51 -1 36 0.000 0 0 7 0 0 5
	 450 1350 1350 1350 1350 1530 450 1530 450 1350
2 2 0 1 0 18 51 -1 36 0.000 0 0 7 0 0 5
	 1620 1350 1800 1350 1800 1530 1620 1530 1620 1350
2 2 0 1 0 18 51 -1 36 0.000 0 0 7 0 0 5
	 1620 990 1800 990 1800 1170 1620 1170 1620 990
2 2 0 1 0 18 51 -1 36 0.000 0 0 7 0 0 5
	 1620 630 1800 630 1800 810 1620 810 1620 630
2 2 0 1 0 7 51 -1 18 4.000 0 0 7 0 0 5
	 1620 2610 1800 2610 1800 2790 1620 2790 1620 2610
2 1 1 1 0 7 50 -1 18 4.000 0 0 -1 0 0 2
	 1350 2070 1620 2070
2 1 1 1 0 7 50 -1 18 4.000 0 0 -1 0 0 2
	 1350 2250 1620 2250
2 1 1 1 0 7 50 -1 18 4.000 0 0 -1 0 0 2
	 1350 2430 1620 2430
2 1 1 1 0 7 50 -1 18 4.000 0 0 -1 0 0 2
	 1350 2610 1620 2610
2 1 1 1 0 7 50 -1 18 4.000 0 0 -1 0 0 2
	 1350 2790 1620 2790
2 1 1 1 0 7 50 -1 18 4.000 0 0 -1 0 0 2
	 1350 2970 1620 2970
2 2 0 1 0 1 51 -1 36 0.000 0 0 7 0 0 5
	 450 2070 1350 2070 1350 2250 450 2250 450 2070
2 2 0 1 0 1 51 -1 36 0.000 0 0 7 0 0 5
	 450 2250 1350 2250 1350 2430 450 2430 450 2250
2 2 0 1 0 1 51 -1 36 0.000 0 0 7 0 0 5
	 450 2430 1350 2430 1350 2610 450 2610 450 2430
2 2 0 1 0 1 51 -1 36 0.000 0 0 7 0 0 5
	 450 2790 1350 2790 1350 2970 450 2970 450 2790
2 2 0 1 0 1 51 -1 36 0.000 0 0 7 0 0 5
	 1620 2790 1800 2790 1800 2970 1620 2970 1620 2790
2 2 0 1 0 1 51 -1 36 0.000 0 0 7 0 0 5
	 1620 2070 1800 2070 1800 2250 1620 2250 1620 2070
2 2 0 1 0 7 51 -1 18 4.000 0 0 7 0 0 5
	 1620 2430 1800 2430 1800 2610 1620 2610 1620 2430
2 2 0 1 0 7 51 -1 18 4.000 0 0 7 0 0 5
	 1620 2250 1800 2250 1800 2430 1620 2430 1620 2250
2 2 0 1 0 0 53 -1 20 4.000 0 0 7 0 0 5
	 495 2115 1395 2115 1395 3015 495 3015 495 2115
2 2 0 1 0 0 53 -1 20 4.000 0 0 -1 0 0 5
	 1665 2115 1845 2115 1845 3015 1665 3015 1665 2115
2 2 0 1 0 0 53 -1 20 4.000 0 0 -1 0 0 5
	 2295 495 3195 495 3195 3195 2295 3195 2295 495
2 2 0 1 0 0 53 -1 20 4.000 0 0 -1 0 0 5
	 1665 675 1845 675 1845 1575 1665 1575 1665 675
2 2 0 1 0 0 53 -1 20 4.000 0 0 7 0 0 5
	 495 675 1395 675 1395 1575 495 1575 495 675
2 2 0 1 0 12 51 -1 36 0.000 0 0 7 0 0 5
	 2250 630 3150 630 3150 810 2250 810 2250 630
2 2 0 1 0 12 51 -1 36 4.000 0 0 7 0 0 5
	 2250 1170 3150 1170 3150 1350 2250 1350 2250 1170
2 2 0 1 0 12 51 -1 36 4.000 0 0 7 0 0 5
	 2250 1890 3150 1890 3150 2070 2250 2070 2250 1890
2 2 0 1 0 12 51 -1 36 4.000 0 0 7 0 0 5
	 2250 2610 3150 2610 3150 2790 2250 2790 2250 2610
2 2 0 1 0 7 51 -1 18 4.000 0 0 7 0 0 5
	 450 1170 1350 1170 1350 1350 450 1350 450 1170
2 2 0 1 0 7 51 -1 18 4.000 0 0 7 0 0 5
	 450 2610 1350 2610 1350 2790 450 2790 450 2610
2 3 1 1 0 12 52 -1 -1 4.000 0 0 -1 0 0 5
	 1800 990 2250 630 2250 810 1800 1170 1800 990
2 3 1 1 0 12 52 -1 -1 4.000 0 0 -1 0 0 5
	 1800 630 2250 1170 2250 1350 1800 810 1800 630
2 3 1 1 0 12 52 -1 -1 4.000 0 0 7 0 0 5
	 1800 2070 2250 1170 2250 1350 1800 2250 1800 2070
2 3 1 1 0 12 52 -1 -1 4.000 0 0 -1 0 0 5
	 1800 1350 2250 1890 2250 2070 1800 1530 1800 1350
2 3 1 1 0 12 52 -1 -1 4.000 0 0 7 0 0 5
	 1800 2790 2250 2610 2250 2790 1800 2970 1800 2790
4 1 0 50 -1 16 8 0.0000 4 135 630 2700 180 m\351moire\001
4 1 0 50 -1 16 8 0.0000 4 165 720 2700 345 physique\001
4 1 0 50 -1 16 8 0.0000 4 120 450 1710 555 pages\001
4 1 0 50 -1 16 8 0.0000 4 165 810 900 360 espace du\001
4 1 0 50 -1 16 8 0.0000 4 165 990 900 525 processus A\001
4 1 0 50 -1 16 8 0.0000 4 120 450 1710 1995 pages\001
4 1 0 50 -1 16 8 0.0000 4 165 810 900 1800 espace du\001
4 1 0 50 -1 16 8 0.0000 4 165 990 900 1965 processus B\001
4 1 0 50 -1 16 8 0.0000 4 135 270 1710 450 des\001
4 1 0 50 -1 16 8 0.0000 4 135 450 1710 315 table\001
4 1 0 50 -1 16 8 0.0000 4 135 270 1710 1890 des\001
4 1 0 50 -1 16 8 0.0000 4 135 450 1710 1755 table\001
4 2 0 50 -1 16 6 0.0000 4 135 180 405 765 P0\001
4 2 0 50 -1 16 6 0.0000 4 135 180 405 945 P1\001
4 2 0 50 -1 16 6 0.0000 4 135 180 405 1125 P2\001
4 2 0 50 -1 16 6 0.0000 4 135 180 405 1305 P3\001
4 2 0 50 -1 16 6 0.0000 4 135 180 405 1485 P4\001
4 2 0 50 -1 16 6 0.0000 4 135 180 405 2205 P0\001
4 2 0 50 -1 16 6 0.0000 4 135 180 405 2385 P1\001
4 2 0 50 -1 16 6 0.0000 4 135 180 405 2565 P2\001
4 2 0 50 -1 16 6 0.0000 4 135 180 405 2745 P3\001
4 2 0 50 -1 16 6 0.0000 4 135 180 405 2925 P4\001
