#FIG 3.2  Produced by xfig version 3.2.7a
Landscape
Center
Metric
A4
100.00
Single
-2
1200 2
6 5670 1350 6405 2070
1 3 0 1 0 11 51 -1 36 0.000 1 0.0000 5940 1755 270 270 5940 1755 6210 1755
1 3 0 1 0 0 52 -1 20 0.000 1 0.0000 5985 1800 270 270 5985 1800 6255 1800
4 1 0 50 -1 17 6 0.0000 4 90 420 5940 1440 inode 13\001
4 0 0 50 -1 16 4 0.0000 4 75 690 5715 1755 \\documentclass...\001
-6
6 3150 2340 6975 2610
2 1 0 1 0 7 50 -1 -1 0.000 0 0 -1 0 0 7
	 3150 2340 3195 2385 4995 2385 5040 2430 5085 2385 6930 2385
	 6975 2340
4 1 0 50 -1 17 8 0.0000 4 135 225 5040 2565 implémentation\001
-6
6 3150 1350 3825 2205
2 1 0 1 0 7 50 -1 -1 0.000 0 0 -1 0 0 2
	 3330 1485 3330 2160
2 1 0 1 0 7 50 -1 -1 0.000 0 0 -1 0 0 2
	 3150 1620 3780 1620
2 1 0 1 0 7 50 -1 -1 0.000 0 0 -1 0 0 2
	 3150 1755 3780 1755
2 1 0 1 0 7 50 -1 -1 0.000 0 0 -1 0 0 2
	 3150 1890 3780 1890
2 1 0 1 0 7 50 -1 -1 0.000 0 0 -1 0 0 2
	 3150 2025 3780 2025
2 2 0 1 0 13 51 -1 36 0.000 0 0 -1 0 0 5
	 3150 1485 3780 1485 3780 2160 3150 2160 3150 1485
2 2 0 1 0 0 52 -1 20 0.000 0 0 -1 0 0 5
	 3195 1530 3825 1530 3825 2205 3195 2205 3195 1530
4 1 0 50 -1 16 6 0.0000 4 75 60 3240 1575 2\001
4 1 0 50 -1 16 6 0.0000 4 75 60 3240 1710 2\001
4 0 0 50 -1 16 6 0.0000 4 15 60 3375 1710 ..\001
4 0 0 50 -1 16 6 0.0000 4 15 30 3375 1575 .\001
4 1 0 50 -1 16 6 0.0000 4 75 60 3240 1845 3\001
4 0 0 50 -1 16 6 0.0000 4 90 270 3375 1980 home\001
4 1 0 50 -1 16 6 0.0000 4 75 60 3240 1980 8\001
4 1 0 50 -1 16 6 0.0000 4 75 120 3240 2115 12\001
4 1 0 50 -1 17 6 0.0000 4 90 360 3465 1440 inode 2\001
4 0 0 50 -1 16 6 0.0000 4 60 150 3375 2115 usr\001
4 0 0 50 -1 16 6 0.0000 4 75 150 3375 1845 etc\001
-6
6 4050 1350 4725 2205
2 1 0 1 0 7 50 -1 -1 0.000 0 0 -1 0 0 2
	 4230 1485 4230 2160
2 1 0 1 0 7 50 -1 -1 0.000 0 0 -1 0 0 2
	 4050 1620 4680 1620
2 1 0 1 0 7 50 -1 -1 0.000 0 0 -1 0 0 2
	 4050 1755 4680 1755
2 1 0 1 0 7 50 -1 -1 0.000 0 0 -1 0 0 2
	 4050 1890 4680 1890
2 1 0 1 0 7 50 -1 -1 0.000 0 0 -1 0 0 2
	 4050 2025 4680 2025
2 2 0 1 0 13 51 -1 36 0.000 0 0 -1 0 0 5
	 4050 1485 4680 1485 4680 2160 4050 2160 4050 1485
2 2 0 1 0 0 52 -1 20 0.000 0 0 -1 0 0 5
	 4095 1530 4725 1530 4725 2205 4095 2205 4095 1530
4 0 0 50 -1 16 6 0.0000 4 15 60 4275 1710 ..\001
4 0 0 50 -1 16 6 0.0000 4 15 30 4275 1575 .\001
4 0 0 50 -1 16 6 0.0000 4 75 180 4275 1845 toto\001
4 1 0 50 -1 16 6 0.0000 4 75 60 4140 1575 8\001
4 1 0 50 -1 16 6 0.0000 4 75 60 4140 1710 2\001
4 1 0 50 -1 16 6 0.0000 4 75 60 4140 1845 9\001
4 1 0 50 -1 16 6 0.0000 4 75 120 4140 1980 10\001
4 1 0 50 -1 16 6 0.0000 4 75 120 4140 2115 11\001
4 0 0 50 -1 16 6 0.0000 4 105 180 4275 1980 pda\001
4 0 0 50 -1 16 6 0.0000 4 75 180 4275 2115 tata\001
4 1 0 50 -1 17 6 0.0000 4 90 360 4365 1440 inode 8\001
-6
6 4860 1350 5535 2070
2 1 0 1 0 7 50 -1 -1 0.000 0 0 -1 0 0 2
	 5040 1485 5040 2025
2 1 0 1 0 7 50 -1 -1 0.000 0 0 -1 0 0 2
	 4860 1620 5490 1620
2 1 0 1 0 7 50 -1 -1 0.000 0 0 -1 0 0 2
	 4860 1755 5490 1755
2 1 0 1 0 7 50 -1 -1 0.000 0 0 -1 0 0 2
	 4860 1890 5490 1890
2 2 0 1 0 13 51 -1 36 0.000 0 0 -1 0 0 5
	 4860 1485 5490 1485 5490 2025 4860 2025 4860 1485
2 2 0 1 0 0 52 -1 20 0.000 0 0 -1 0 0 5
	 4905 1530 5535 1530 5535 2070 4905 2070 4905 1530
4 0 0 50 -1 16 6 0.0000 4 15 60 5085 1710 ..\001
4 0 0 50 -1 16 6 0.0000 4 15 30 5085 1575 .\001
4 0 0 50 -1 16 6 0.0000 4 90 360 5085 1845 ch1.tex\001
4 0 0 50 -1 16 6 0.0000 4 90 330 5085 1980 exo.py\001
4 1 0 50 -1 17 6 0.0000 4 90 420 5175 1440 inode 10\001
4 1 0 50 -1 16 6 0.0000 4 75 120 4950 1575 10\001
4 1 0 50 -1 16 6 0.0000 4 75 60 4950 1710 8\001
4 1 0 50 -1 16 6 0.0000 4 75 120 4950 1845 13\001
4 1 0 50 -1 16 6 0.0000 4 75 120 4950 1980 14\001
-6
6 6390 1350 6975 2070
1 3 0 1 0 11 51 -1 36 0.000 1 0.0000 6660 1755 270 270 6660 1755 6930 1755
1 3 0 1 0 0 52 -1 20 0.000 1 0.0000 6705 1800 270 270 6705 1800 6975 1800
4 1 0 50 -1 17 6 0.0000 4 90 420 6660 1440 inode 14\001
4 0 0 50 -1 16 4 0.0000 4 90 405 6435 1755 #! python3\001
-6
2 1 0 1 0 7 50 -1 -1 0.000 0 0 -1 0 0 2
	 2250 1395 1800 1620
2 1 0 1 0 7 50 -1 -1 0.000 0 0 -1 0 0 2
	 2250 1395 2250 1620
2 1 0 1 0 7 50 -1 -1 0.000 0 0 -1 0 0 2
	 2250 1395 2700 1620
2 1 0 1 0 7 50 -1 -1 0.000 0 0 -1 0 0 2
	 2250 1845 2250 2070
2 1 0 1 0 7 50 -1 -1 0.000 0 0 -1 0 0 2
	 2250 1845 1890 2070
2 1 0 1 0 7 50 -1 -1 0.000 0 0 -1 0 0 2
	 2250 1845 2610 2070
2 1 0 1 0 7 50 -1 -1 0.000 0 0 -1 0 0 2
	 2250 2295 1980 2520
2 1 0 1 0 7 50 -1 -1 0.000 0 0 -1 0 0 2
	 2250 2295 2520 2520
2 1 0 1 0 7 50 -1 -1 0.000 0 0 -1 0 0 7
	 1530 2790 1575 2835 2205 2835 2250 2880 2295 2835 2925 2835
	 2970 2790
4 1 0 50 -1 16 8 0.0000 4 105 45 2250 1350 /\001
4 1 0 50 -1 16 8 0.0000 4 105 345 2250 1800 home\001
4 1 0 50 -1 16 8 0.0000 4 90 195 1710 1800 etc\001
4 1 0 50 -1 17 8 0.0000 4 135 840 2250 3015 vision logique\001
4 1 0 50 -1 16 8 0.0000 4 90 240 1800 2250 toto\001
4 1 0 50 -1 16 8 0.0000 4 135 225 2250 2250 pda\001
4 1 0 50 -1 16 8 0.0000 4 90 240 2700 2250 tata\001
4 1 0 50 -1 16 8 0.0000 4 75 195 2790 1800 usr\001
4 1 0 50 -1 16 8 0.0000 4 105 465 1890 2700 ch1.tex\001
4 1 0 50 -1 16 8 0.0000 4 105 420 2610 2700 exo.py\001
